%YAML 1.1
%TAG !u! tag:unity3d.com,2011:
--- !u!1 &5662447328414438217
GameObject:
  m_ObjectHideFlags: 0
  m_CorrespondingSourceObject: {fileID: 0}
  m_PrefabInstance: {fileID: 0}
  m_PrefabAsset: {fileID: 0}
  serializedVersion: 6
  m_Component:
  - component: {fileID: 7764951869115026573}
  m_Layer: 0
  m_Name: SpawnerBuilding
  m_TagString: Untagged
  m_Icon: {fileID: 0}
  m_NavMeshLayer: 0
  m_StaticEditorFlags: 0
  m_IsActive: 1
--- !u!4 &7764951869115026573
Transform:
  m_ObjectHideFlags: 0
  m_CorrespondingSourceObject: {fileID: 0}
  m_PrefabInstance: {fileID: 0}
  m_PrefabAsset: {fileID: 0}
  m_GameObject: {fileID: 5662447328414438217}
  m_LocalRotation: {x: 0, y: 0, z: 0, w: 1}
  m_LocalPosition: {x: 0.67154264, y: 0.89517283, z: 2.4519086}
  m_LocalScale: {x: 1, y: 1, z: 1}
  m_Children:
  - {fileID: 1334269300126321368}
  m_Father: {fileID: 0}
  m_RootOrder: 0
  m_LocalEulerAnglesHint: {x: 0, y: 0, z: 0}
--- !u!1001 &359344856631177361
PrefabInstance:
  m_ObjectHideFlags: 0
  serializedVersion: 2
  m_Modification:
    m_TransformParent: {fileID: 7764951869115026573}
    m_Modifications:
    - target: {fileID: 978752211544481032, guid: 82a6182ad044a82448e8bca582fa193d,
        type: 3}
      propertyPath: m_Name
      value: SpawnerTemp
      objectReference: {fileID: 0}
    - target: {fileID: 1619291343276767817, guid: 82a6182ad044a82448e8bca582fa193d,
        type: 3}
      propertyPath: m_LocalPosition.x
      value: 0
      objectReference: {fileID: 0}
    - target: {fileID: 1619291343276767817, guid: 82a6182ad044a82448e8bca582fa193d,
        type: 3}
      propertyPath: m_LocalPosition.y
      value: -0.5
      objectReference: {fileID: 0}
    - target: {fileID: 1619291343276767817, guid: 82a6182ad044a82448e8bca582fa193d,
        type: 3}
      propertyPath: m_LocalPosition.z
      value: 0
      objectReference: {fileID: 0}
    - target: {fileID: 1619291343276767817, guid: 82a6182ad044a82448e8bca582fa193d,
        type: 3}
      propertyPath: m_LocalRotation.x
      value: -0
      objectReference: {fileID: 0}
    - target: {fileID: 1619291343276767817, guid: 82a6182ad044a82448e8bca582fa193d,
        type: 3}
      propertyPath: m_LocalRotation.y
      value: -0
      objectReference: {fileID: 0}
    - target: {fileID: 1619291343276767817, guid: 82a6182ad044a82448e8bca582fa193d,
        type: 3}
      propertyPath: m_LocalRotation.z
      value: -0
      objectReference: {fileID: 0}
    - target: {fileID: 1619291343276767817, guid: 82a6182ad044a82448e8bca582fa193d,
        type: 3}
      propertyPath: m_LocalRotation.w
      value: 1
      objectReference: {fileID: 0}
    - target: {fileID: 1619291343276767817, guid: 82a6182ad044a82448e8bca582fa193d,
        type: 3}
      propertyPath: m_RootOrder
      value: 0
      objectReference: {fileID: 0}
    - target: {fileID: 1619291343276767817, guid: 82a6182ad044a82448e8bca582fa193d,
        type: 3}
      propertyPath: m_LocalEulerAnglesHint.x
      value: 0
      objectReference: {fileID: 0}
    - target: {fileID: 1619291343276767817, guid: 82a6182ad044a82448e8bca582fa193d,
        type: 3}
      propertyPath: m_LocalEulerAnglesHint.y
      value: 0
      objectReference: {fileID: 0}
    - target: {fileID: 1619291343276767817, guid: 82a6182ad044a82448e8bca582fa193d,
        type: 3}
      propertyPath: m_LocalEulerAnglesHint.z
      value: 0
      objectReference: {fileID: 0}
    - target: {fileID: 1619291343276767817, guid: 82a6182ad044a82448e8bca582fa193d,
        type: 3}
      propertyPath: m_LocalScale.x
      value: 2.68
      objectReference: {fileID: 0}
    - target: {fileID: 1619291343276767817, guid: 82a6182ad044a82448e8bca582fa193d,
        type: 3}
      propertyPath: m_LocalScale.z
      value: 2.28
      objectReference: {fileID: 0}
    - target: {fileID: 4784011468525936930, guid: 82a6182ad044a82448e8bca582fa193d,
        type: 3}
      propertyPath: m_Materials.Array.data[0]
      value: 
      objectReference: {fileID: 2100000, guid: c0929e2660b749d49ad53de22b0e6c1c, type: 2}
    m_RemovedComponents: []
  m_SourcePrefab: {fileID: 100100000, guid: 82a6182ad044a82448e8bca582fa193d, type: 3}
--- !u!4 &1334269300126321368 stripped
Transform:
  m_CorrespondingSourceObject: {fileID: 1619291343276767817, guid: 82a6182ad044a82448e8bca582fa193d,
    type: 3}
  m_PrefabInstance: {fileID: 359344856631177361}
  m_PrefabAsset: {fileID: 0}
