%YAML 1.1
%TAG !u! tag:unity3d.com,2011:
--- !u!1 &240640539
GameObject:
  m_ObjectHideFlags: 0
  m_CorrespondingSourceObject: {fileID: 0}
  m_PrefabInstance: {fileID: 0}
  m_PrefabAsset: {fileID: 0}
  serializedVersion: 6
  m_Component:
  - component: {fileID: 240640540}
  - component: {fileID: 240640542}
  - component: {fileID: 240640541}
  m_Layer: 9
  m_Name: Absorbable
  m_TagString: Untagged
  m_Icon: {fileID: 0}
  m_NavMeshLayer: 0
  m_StaticEditorFlags: 0
  m_IsActive: 1
--- !u!4 &240640540
Transform:
  m_ObjectHideFlags: 0
  m_CorrespondingSourceObject: {fileID: 0}
  m_PrefabInstance: {fileID: 0}
  m_PrefabAsset: {fileID: 0}
  m_GameObject: {fileID: 240640539}
  m_LocalRotation: {x: 0, y: 0, z: 0, w: 1}
  m_LocalPosition: {x: 0, y: 0, z: 0}
  m_LocalScale: {x: 1, y: 1, z: 1}
  m_Children: []
  m_Father: {fileID: 1924250283972159608}
  m_RootOrder: 0
  m_LocalEulerAnglesHint: {x: 0, y: 0, z: 0}
--- !u!114 &240640542
MonoBehaviour:
  m_ObjectHideFlags: 0
  m_CorrespondingSourceObject: {fileID: 0}
  m_PrefabInstance: {fileID: 0}
  m_PrefabAsset: {fileID: 0}
  m_GameObject: {fileID: 240640539}
  m_Enabled: 1
  m_EditorHideFlags: 0
  m_Script: {fileID: 11500000, guid: de3adabb096857f40b14692b081d145c, type: 3}
  m_Name: 
  m_EditorClassIdentifier: 
  registerOnStart: 0
  script: {fileID: 0}
  finder: {fileID: 0}
  belongsTo: {fileID: 11400000, guid: dbdd2671cf58c8c49961cc6edafc854a, type: 2}
--- !u!65 &240640541
BoxCollider:
  m_ObjectHideFlags: 0
  m_CorrespondingSourceObject: {fileID: 0}
  m_PrefabInstance: {fileID: 0}
  m_PrefabAsset: {fileID: 0}
  m_GameObject: {fileID: 240640539}
  m_Material: {fileID: 0}
  m_IsTrigger: 1
  m_Enabled: 1
  serializedVersion: 2
  m_Size: {x: 1, y: 1, z: 1}
  m_Center: {x: 0, y: 0, z: 0}
--- !u!114 &-4756116626849148135
MonoBehaviour:
  m_ObjectHideFlags: 0
  m_CorrespondingSourceObject: {fileID: 0}
  m_PrefabInstance: {fileID: 0}
  m_PrefabAsset: {fileID: 0}
  m_GameObject: {fileID: 3004379863362092023}
  m_Enabled: 1
  m_EditorHideFlags: 0
  m_Script: {fileID: 11500000, guid: a02cf3083a69bef42bb08ba980d3f43a, type: 3}
  m_Name: 
  m_EditorClassIdentifier: 
  worthOnDeath: 2
--- !u!1001 &8078217944095457778
PrefabInstance:
  m_ObjectHideFlags: 0
  serializedVersion: 2
  m_Modification:
    m_TransformParent: {fileID: 0}
    m_Modifications:
    - target: {fileID: -3363914595107625994, guid: 0fc4fec27f6210843bb124b24f8a4bbf,
        type: 3}
      propertyPath: call.callFuns.Array.size
      value: 2
      objectReference: {fileID: 0}
    - target: {fileID: -3363914595107625994, guid: 0fc4fec27f6210843bb124b24f8a4bbf,
        type: 3}
      propertyPath: call.references.Array.size
      value: 2
      objectReference: {fileID: 0}
    - target: {fileID: -3363914595107625994, guid: 0fc4fec27f6210843bb124b24f8a4bbf,
        type: 3}
      propertyPath: call.callFuns.Array.data[0]
      value: AllianceDifferent
      objectReference: {fileID: 0}
    - target: {fileID: -3363914595107625994, guid: 0fc4fec27f6210843bb124b24f8a4bbf,
        type: 3}
      propertyPath: call.callFuns.Array.data[1]
      value: OnHit
      objectReference: {fileID: 0}
    - target: {fileID: -3363914595107625994, guid: 0fc4fec27f6210843bb124b24f8a4bbf,
        type: 3}
      propertyPath: call.references.Array.data[0]
      value: 
      objectReference: {fileID: 8730559764297253637}
    - target: {fileID: -3363914595107625994, guid: 0fc4fec27f6210843bb124b24f8a4bbf,
        type: 3}
      propertyPath: call.references.Array.data[1]
      value: 
      objectReference: {fileID: 3268385753880371834}
    - target: {fileID: -3363914595107625994, guid: 0fc4fec27f6210843bb124b24f8a4bbf,
        type: 3}
      propertyPath: useCollision
      value: 0
      objectReference: {fileID: 0}
    - target: {fileID: -3363914595107625994, guid: 0fc4fec27f6210843bb124b24f8a4bbf,
        type: 3}
      propertyPath: useTrigger
      value: 1
      objectReference: {fileID: 0}
    - target: {fileID: 381030146304024738, guid: 0fc4fec27f6210843bb124b24f8a4bbf,
        type: 3}
      propertyPath: researchSender
      value: 
      objectReference: {fileID: 0}
    - target: {fileID: 662791871801492215, guid: 0fc4fec27f6210843bb124b24f8a4bbf,
        type: 3}
      propertyPath: thisAlliance
      value: 1
      objectReference: {fileID: 0}
    - target: {fileID: 695494951990129942, guid: 0fc4fec27f6210843bb124b24f8a4bbf,
        type: 3}
      propertyPath: OnDestroyed.m_PersistentCalls.m_Calls.Array.size
      value: 1
      objectReference: {fileID: 0}
    - target: {fileID: 695494951990129942, guid: 0fc4fec27f6210843bb124b24f8a4bbf,
        type: 3}
      propertyPath: OnDestroyed.m_PersistentCalls.m_Calls.Array.data[0].m_Mode
      value: 1
      objectReference: {fileID: 0}
    - target: {fileID: 695494951990129942, guid: 0fc4fec27f6210843bb124b24f8a4bbf,
        type: 3}
      propertyPath: OnDestroyed.m_PersistentCalls.m_Calls.Array.data[0].m_CallState
      value: 2
      objectReference: {fileID: 0}
    - target: {fileID: 695494951990129942, guid: 0fc4fec27f6210843bb124b24f8a4bbf,
        type: 3}
      propertyPath: OnDestroyed.m_PersistentCalls.m_Calls.Array.data[0].m_Target
      value: 
      objectReference: {fileID: -4756116626849148135}
    - target: {fileID: 695494951990129942, guid: 0fc4fec27f6210843bb124b24f8a4bbf,
        type: 3}
      propertyPath: OnDestroyed.m_PersistentCalls.m_Calls.Array.data[0].m_MethodName
      value: AddVSPToAnyCluster
      objectReference: {fileID: 0}
    - target: {fileID: 695494951990129942, guid: 0fc4fec27f6210843bb124b24f8a4bbf,
        type: 3}
      propertyPath: OnDestroyed.m_PersistentCalls.m_Calls.Array.data[0].m_Arguments.m_ObjectArgumentAssemblyTypeName
      value: UnityEngine.Object, UnityEngine
      objectReference: {fileID: 0}
    - target: {fileID: 695494951990129942, guid: 0fc4fec27f6210843bb124b24f8a4bbf,
        type: 3}
      propertyPath: OnDestroyed.m_PersistentCalls.m_Calls.Array.data[1].m_Mode
      value: 1
      objectReference: {fileID: 0}
    - target: {fileID: 695494951990129942, guid: 0fc4fec27f6210843bb124b24f8a4bbf,
        type: 3}
      propertyPath: OnDestroyed.m_PersistentCalls.m_Calls.Array.data[1].m_CallState
      value: 2
      objectReference: {fileID: 0}
    - target: {fileID: 695494951990129942, guid: 0fc4fec27f6210843bb124b24f8a4bbf,
        type: 3}
      propertyPath: OnDestroyed.m_PersistentCalls.m_Calls.Array.data[1].m_Target
      value: 
      objectReference: {fileID: 8772304616425387236}
    - target: {fileID: 695494951990129942, guid: 0fc4fec27f6210843bb124b24f8a4bbf,
        type: 3}
      propertyPath: OnDestroyed.m_PersistentCalls.m_Calls.Array.data[1].m_MethodName
      value: DebugLog
      objectReference: {fileID: 0}
    - target: {fileID: 695494951990129942, guid: 0fc4fec27f6210843bb124b24f8a4bbf,
        type: 3}
      propertyPath: OnDestroyed.m_PersistentCalls.m_Calls.Array.data[1].m_Arguments.m_ObjectArgumentAssemblyTypeName
      value: UnityEngine.Object, UnityEngine
      objectReference: {fileID: 0}
    - target: {fileID: 3567363187902169517, guid: 0fc4fec27f6210843bb124b24f8a4bbf,
        type: 3}
      propertyPath: m_IsActive
      value: 0
      objectReference: {fileID: 0}
    - target: {fileID: 3754287986812391235, guid: 0fc4fec27f6210843bb124b24f8a4bbf,
        type: 3}
      propertyPath: m_IsTrigger
      value: 1
      objectReference: {fileID: 0}
    - target: {fileID: 4077712338987557003, guid: 0fc4fec27f6210843bb124b24f8a4bbf,
        type: 3}
      propertyPath: direction.z
      value: 1
      objectReference: {fileID: 0}
    - target: {fileID: 4077712338987557003, guid: 0fc4fec27f6210843bb124b24f8a4bbf,
        type: 3}
      propertyPath: moveSpeed
      value: 3
      objectReference: {fileID: 0}
    - target: {fileID: 4077712338987557003, guid: 0fc4fec27f6210843bb124b24f8a4bbf,
        type: 3}
      propertyPath: rotationSpeed
      value: 10
      objectReference: {fileID: 0}
    - target: {fileID: 4077712338987557003, guid: 0fc4fec27f6210843bb124b24f8a4bbf,
        type: 3}
      propertyPath: rotationSpeed.defaultValue
      value: 0
      objectReference: {fileID: 0}
    - target: {fileID: 4077712338987557003, guid: 0fc4fec27f6210843bb124b24f8a4bbf,
        type: 3}
      propertyPath: moveSpeed.defaultValue
      value: 2
      objectReference: {fileID: 0}
    - target: {fileID: 4077712338987557003, guid: 0fc4fec27f6210843bb124b24f8a4bbf,
        type: 3}
      propertyPath: relativeTo.defaultValue
      value: 1
      objectReference: {fileID: 0}
    - target: {fileID: 4744049145723941408, guid: 0fc4fec27f6210843bb124b24f8a4bbf,
        type: 3}
      propertyPath: m_UseGravity
      value: 0
      objectReference: {fileID: 0}
    - target: {fileID: 4744049145723941408, guid: 0fc4fec27f6210843bb124b24f8a4bbf,
        type: 3}
      propertyPath: m_IsKinematic
      value: 1
      objectReference: {fileID: 0}
    - target: {fileID: 6461024968728099333, guid: 0fc4fec27f6210843bb124b24f8a4bbf,
        type: 3}
      propertyPath: m_Name
      value: MovingBlock-B1
      objectReference: {fileID: 0}
    - target: {fileID: 6719436536200536968, guid: 0fc4fec27f6210843bb124b24f8a4bbf,
        type: 3}
      propertyPath: onDamage.m_PersistentCalls.m_Calls.Array.size
      value: 0
      objectReference: {fileID: 0}
    - target: {fileID: 6719436536200536968, guid: 0fc4fec27f6210843bb124b24f8a4bbf,
        type: 3}
      propertyPath: onDamage.m_PersistentCalls.m_Calls.Array.data[0].m_Target
      value: 
      objectReference: {fileID: 8730559764297253637}
    - target: {fileID: 6719436536200536968, guid: 0fc4fec27f6210843bb124b24f8a4bbf,
        type: 3}
      propertyPath: onDamage.m_PersistentCalls.m_Calls.Array.data[0].m_MethodName
      value: AllianceDifferent
      objectReference: {fileID: 0}
    - target: {fileID: 6719436536200536968, guid: 0fc4fec27f6210843bb124b24f8a4bbf,
        type: 3}
      propertyPath: onDamage.m_PersistentCalls.m_Calls.Array.data[0].m_Mode
      value: 1
      objectReference: {fileID: 0}
    - target: {fileID: 6719436536200536968, guid: 0fc4fec27f6210843bb124b24f8a4bbf,
        type: 3}
      propertyPath: onDamage.m_PersistentCalls.m_Calls.Array.data[0].m_Arguments.m_ObjectArgumentAssemblyTypeName
      value: UnityEngine.Object, UnityEngine
      objectReference: {fileID: 0}
    - target: {fileID: 6719436536200536968, guid: 0fc4fec27f6210843bb124b24f8a4bbf,
        type: 3}
      propertyPath: onDamage.m_PersistentCalls.m_Calls.Array.data[0].m_CallState
      value: 2
      objectReference: {fileID: 0}
    - target: {fileID: 7687599601333168522, guid: 0fc4fec27f6210843bb124b24f8a4bbf,
        type: 3}
      propertyPath: m_LocalPosition.x
      value: 0
      objectReference: {fileID: 0}
    - target: {fileID: 7687599601333168522, guid: 0fc4fec27f6210843bb124b24f8a4bbf,
        type: 3}
      propertyPath: m_LocalPosition.y
      value: 0
      objectReference: {fileID: 0}
    - target: {fileID: 7687599601333168522, guid: 0fc4fec27f6210843bb124b24f8a4bbf,
        type: 3}
      propertyPath: m_LocalPosition.z
      value: 0
      objectReference: {fileID: 0}
    - target: {fileID: 7687599601333168522, guid: 0fc4fec27f6210843bb124b24f8a4bbf,
        type: 3}
      propertyPath: m_LocalRotation.x
      value: 0
      objectReference: {fileID: 0}
    - target: {fileID: 7687599601333168522, guid: 0fc4fec27f6210843bb124b24f8a4bbf,
        type: 3}
      propertyPath: m_LocalRotation.y
      value: 0
      objectReference: {fileID: 0}
    - target: {fileID: 7687599601333168522, guid: 0fc4fec27f6210843bb124b24f8a4bbf,
        type: 3}
      propertyPath: m_LocalRotation.z
      value: 0
      objectReference: {fileID: 0}
    - target: {fileID: 7687599601333168522, guid: 0fc4fec27f6210843bb124b24f8a4bbf,
        type: 3}
      propertyPath: m_LocalRotation.w
      value: 1
      objectReference: {fileID: 0}
    - target: {fileID: 7687599601333168522, guid: 0fc4fec27f6210843bb124b24f8a4bbf,
        type: 3}
      propertyPath: m_RootOrder
      value: 0
      objectReference: {fileID: 0}
    - target: {fileID: 7687599601333168522, guid: 0fc4fec27f6210843bb124b24f8a4bbf,
        type: 3}
      propertyPath: m_LocalEulerAnglesHint.x
      value: 0
      objectReference: {fileID: 0}
    - target: {fileID: 7687599601333168522, guid: 0fc4fec27f6210843bb124b24f8a4bbf,
        type: 3}
      propertyPath: m_LocalEulerAnglesHint.y
      value: 0
      objectReference: {fileID: 0}
    - target: {fileID: 7687599601333168522, guid: 0fc4fec27f6210843bb124b24f8a4bbf,
        type: 3}
      propertyPath: m_LocalEulerAnglesHint.z
      value: 0
      objectReference: {fileID: 0}
    m_RemovedComponents:
    - {fileID: 8790195580616774005, guid: 0fc4fec27f6210843bb124b24f8a4bbf, type: 3}
    - {fileID: 5183991795293408562, guid: 0fc4fec27f6210843bb124b24f8a4bbf, type: 3}
  m_SourcePrefab: {fileID: 100100000, guid: 0fc4fec27f6210843bb124b24f8a4bbf, type: 3}
--- !u!1 &3004379863362092023 stripped
GameObject:
  m_CorrespondingSourceObject: {fileID: 6461024968728099333, guid: 0fc4fec27f6210843bb124b24f8a4bbf,
    type: 3}
  m_PrefabInstance: {fileID: 8078217944095457778}
  m_PrefabAsset: {fileID: 0}
--- !u!4 &1924250283972159608 stripped
Transform:
  m_CorrespondingSourceObject: {fileID: 7687599601333168522, guid: 0fc4fec27f6210843bb124b24f8a4bbf,
    type: 3}
  m_PrefabInstance: {fileID: 8078217944095457778}
  m_PrefabAsset: {fileID: 0}
--- !u!114 &8730559764297253637 stripped
MonoBehaviour:
  m_CorrespondingSourceObject: {fileID: 662791871801492215, guid: 0fc4fec27f6210843bb124b24f8a4bbf,
    type: 3}
  m_PrefabInstance: {fileID: 8078217944095457778}
  m_PrefabAsset: {fileID: 0}
  m_GameObject: {fileID: 3004379863362092023}
  m_Enabled: 1
  m_EditorHideFlags: 0
  m_Script: {fileID: 11500000, guid: dd47a9e71d1d6eb4a809b312cd6b61d8, type: 3}
  m_Name: 
  m_EditorClassIdentifier: 
--- !u!114 &3268385753880371834 stripped
MonoBehaviour:
  m_CorrespondingSourceObject: {fileID: 6719436536200536968, guid: 0fc4fec27f6210843bb124b24f8a4bbf,
    type: 3}
  m_PrefabInstance: {fileID: 8078217944095457778}
  m_PrefabAsset: {fileID: 0}
  m_GameObject: {fileID: 3004379863362092023}
  m_Enabled: 1
  m_EditorHideFlags: 0
  m_Script: {fileID: 11500000, guid: 46dd578b501840841a023011ec736596, type: 3}
  m_Name: 
  m_EditorClassIdentifier: 
--- !u!114 &8772304616425387236 stripped
MonoBehaviour:
  m_CorrespondingSourceObject: {fileID: 695494951990129942, guid: 0fc4fec27f6210843bb124b24f8a4bbf,
    type: 3}
  m_PrefabInstance: {fileID: 8078217944095457778}
  m_PrefabAsset: {fileID: 0}
  m_GameObject: {fileID: 3004379863362092023}
  m_Enabled: 1
  m_EditorHideFlags: 0
  m_Script: {fileID: 11500000, guid: 9e021b51aa3ab2f4c83a8db763dea70d, type: 3}
  m_Name: 
  m_EditorClassIdentifier: 
